{
  "Title": "Team Members",
    "ColumnHeaders" :
  [
    "ID",
    "Name",
    "Role",
    "Nickname"
  ],
  "Data" :
  [
    {
        "ID" : "001",
        "Name" : "John Doe",
        "Role" : "Engineer",
        "Nickname" : "KillerJo",
    },
    {
        "ID" : "023",
        "Name" : "Claire Dawn",
        "Role" : "Engineer",
        "Nickname" : "Claw",
    },
    {
        "ID" : "012",
        "Name" : "Paul Beef",
        "Role" : "Designer",
        "Nickname" : "BeefyPaul",
    },
    {
        "ID" : "056",
        "Name" : "Sally Sue",
        "Role" : "Artist",
        "Nickname" : "Sue5555",
    },
  ]
}